%YAML 1.1
%TAG !u! tag:unity3d.com,2011:
--- !u!114 &11400000
MonoBehaviour:
  m_ObjectHideFlags: 0
  m_PrefabParentObject: {fileID: 0}
  m_PrefabInternal: {fileID: 0}
  m_GameObject: {fileID: 0}
  m_Enabled: 1
  m_EditorHideFlags: 0
  m_Script: {fileID: 11500000, guid: d2060bfb691f9894eb1aa5eca4f35586, type: 3}
  m_Name: JargonContainer_3
  m_EditorClassIdentifier: 
  Model: {fileID: 100000, guid: 30dc6ed1dc6b4084a8ddff3930cb47ce, type: 3}
  ModelName: Boot
  Mapping:
  - CommonID: fcacc3474aae57d4b8ce106d9e4cba9a
    UniqueId: a5eea67a-3b03-4adf-9cc1-a8a2b2646bf9
    PosX: -62
    PosY: 21
    PosZ: 0
