%YAML 1.1
%TAG !u! tag:unity3d.com,2011:
--- !u!114 &11400000
MonoBehaviour:
  m_ObjectHideFlags: 0
  m_PrefabParentObject: {fileID: 0}
  m_PrefabInternal: {fileID: 0}
  m_GameObject: {fileID: 0}
  m_Enabled: 1
  m_EditorHideFlags: 0
  m_Script: {fileID: 11500000, guid: d2060bfb691f9894eb1aa5eca4f35586, type: 3}
  m_Name: Vliegtuig
  m_EditorClassIdentifier: 
  Model: {fileID: 1125385109305806, guid: a32933b73b97e7048b3b7bee7b52729d, type: 2}
  ModelName: Vliegtuig
  Mapping:
  - CommonID: 7bddf64e9ae7f3e40a4e2b388be60a61
    UniqueId: e51d50b3-4822-4ee0-9a02-c643c06949ab
    PosX: 0
    PosY: 26.467
    PosZ: -83.6
