%YAML 1.1
%TAG !u! tag:unity3d.com,2011:
--- !u!114 &11400000
MonoBehaviour:
  m_ObjectHideFlags: 0
  m_PrefabParentObject: {fileID: 0}
  m_PrefabInternal: {fileID: 0}
  m_GameObject: {fileID: 0}
  m_Enabled: 1
  m_EditorHideFlags: 0
  m_Script: {fileID: 11500000, guid: a2b7e4cd8086a9a40a5818984bb5eae1, type: 3}
  m_Name: English
  m_EditorClassIdentifier: 
  LanguageId: 
  LanguageName: English
  Terms:
  - CommonID: fcacc3474aae57d4b8ce106d9e4cba9a
    Name: Jet Engine
    Description: "Generates thrust and has e very long description\nif i say so myself.
      deont you think mate? Drink beer and ...\n ..... ...... bla bla bla rumble rumblerumble"
  - CommonID: 7bddf64e9ae7f3e40a4e2b388be60a61
    Name: second
    Description: Description II
  - CommonID: a0fd475b3e0075546920b3f7d3e4db4e
    Name: Thirthy five
    Description: This is very long
