%YAML 1.1
%TAG !u! tag:unity3d.com,2011:
--- !u!114 &11400000
MonoBehaviour:
  m_ObjectHideFlags: 0
  m_PrefabParentObject: {fileID: 0}
  m_PrefabInternal: {fileID: 0}
  m_GameObject: {fileID: 0}
  m_Enabled: 1
  m_EditorHideFlags: 0
  m_Script: {fileID: 11500000, guid: cf402f52e48f34241af368f1d17a0e9a, type: 3}
  m_Name: XRProfileManager
  m_EditorClassIdentifier: 
  StandardBuildPath: C:/Breinwave/Breinwave_API_Test/Build/Hololens
  CurrentProfile:
    BuildSuffix: NONE_1
    PlayerName: Hololens_Player
    DeviceProfileType: 3
    MobileProfileType: 0
    MobileProfileOS: 0
    DesktopProfileType: 0
    DesktopProfileOS: 0
    m_defineSymbols: 44
    CanHost: 1
    ScenesPaths: []
    isCurrentProfile: 1
  profiles:
  - BuildSuffix: NONE_2
    PlayerName: Aryzon_ARCore_Player
    DeviceProfileType: 2
    MobileProfileType: 4
    MobileProfileOS: 1
    DesktopProfileType: 0
    DesktopProfileOS: 0
    m_defineSymbols: 11
    CanHost: 0
    ScenesPaths:
    - Lobby_Scene
    - Game_Scene
    isCurrentProfile: 0
  - BuildSuffix: NONE_1
    PlayerName: Hololens_Player
    DeviceProfileType: 3
    MobileProfileType: 0
    MobileProfileOS: 0
    DesktopProfileType: 0
    DesktopProfileOS: 0
    m_defineSymbols: 44
    CanHost: 1
    ScenesPaths: []
    isCurrentProfile: 1
